%YAML 1.1
%TAG !u! tag:unity3d.com,2011:
--- !u!1045 &1
EditorBuildSettings:
  m_ObjectHideFlags: 0
  serializedVersion: 2
  m_Scenes:
  - enabled: 1
    path: Assets/Scenes/Title.unity
    guid: 6d43d5a1c5fad46e5a2514e48a50b3f9
  - enabled: 1
    path: Assets/Scenes/Tutorial.unity
    guid: 63c39c208f2e243d8b7a7f74d2bf6d06
  - enabled: 1
    path: Assets/Scenes/New Level.unity
    guid: cfa055430a146364ea78db5f156582b1
  - enabled: 1
    path: Assets/Scenes/End.unity
    guid: f6c64e35bc66e45b68719148975fd1f7
  m_configObjects: {}
