%YAML 1.1
%TAG !u! tag:unity3d.com,2011:
--- !u!78 &1
TagManager:
  serializedVersion: 2
  tags:
  - Ball
  layers:
  - Default
  - TransparentFX
  - Ignore Raycast
  - 
  - Water
  - UI
  - 
  - 
  - Terrain
  - Corgi
  - Movable
  - Peeable
  - Seeker
  - Attack
  - Peed
  - 
  - 
  - 
  - 
  - 
  - 
  - 
  - 
  - 
  - 
  - 
  - 
  - 
  - 
  - 
  - 
  - 
  m_SortingLayers:
  - name: Background
    uniqueID: 2714126505
    locked: 0
  - name: Default
    uniqueID: 0
    locked: 0
  - name: Props
    uniqueID: 2743692715
    locked: 0
  - name: Enemies
    uniqueID: 2644390459
    locked: 0
  - name: Old Man
    uniqueID: 3565684471
    locked: 0
  - name: Corgi
    uniqueID: 1564567911
    locked: 0
  - name: Ball
    uniqueID: 1767106953
    locked: 0
